{
  "name": "<%= _.slugify(_.humanize(appname)) %>",
  "version": "0.0.0",
  "dependencies": {
    "angular": "~1.0.7",
    "json3": "~3.2.4",
    "jquery": "~1.9.1",
    "bootstrap-sass": "~2.3.1",
    "es5-shim": "~2.0.8",
    "angular-resource": "~1.0.7",
    "angular-cookies": "~1.0.7",
    "angular-sanitize": "~1.0.7",
    "requirejs-domready": "~2.0.1",
    "requirejs": "~2.1.9"
  },
  "devDependencies": {
    "angular-mocks": "~1.0.7",
    "angular-scenario": "~1.0.7"
  }
}
